^C:\USERS\REV\DESKTOP\개인폴더\김민규\자료구조\DS_02\4\DEBUG\MAIN.OBJ
C:\USERS\REV\DESKTOP\개인폴더\김민규\자료구조\DS_02\DEBUG\4.ILK
C:\USERS\REV\DESKTOP\개인폴더\김민규\자료구조\DS_02\DEBUG\4.EXE
C:\USERS\REV\DESKTOP\개인폴더\김민규\자료구조\DS_02\DEBUG\4.PDB
^C:\USERS\REV\DOCUMENTS\DS_02\4\DEBUG\MAIN.OBJ
C:\USERS\REV\DOCUMENTS\DS_02\DEBUG\4.ILK
C:\USERS\REV\DOCUMENTS\DS_02\DEBUG\4.EXE
C:\USERS\REV\DOCUMENTS\DS_02\DEBUG\4.PDB
