^C:\USERS\REV\DESKTOP\개인폴더\김민규\자료구조\DS_02\2-1\DEBUG\MAIN.OBJ
/OUT:"C:\USERS\REV\DESKTOP\개인폴더\김민규\자료구조\DS_02\DEBUG\2-1.EXE" /INCREMENTAL /NOLOGO kernel32.lib user32.lib gdi32.lib winspool.lib comdlg32.lib advapi32.lib shell32.lib ole32.lib oleaut32.lib uuid.lib odbc32.lib odbccp32.lib /MANIFEST /MANIFESTUAC:"level='asInvoker' uiAccess='false'" /manifest:embed /DEBUG /PDB:"C:\USERS\REV\DESKTOP\개인폴더\김민규\자료구조\DS_02\DEBUG\2-1.PDB" /SUBSYSTEM:CONSOLE /TLBID:1 /DYNAMICBASE /NXCOMPAT /IMPLIB:"C:\USERS\REV\DESKTOP\개인폴더\김민규\자료구조\DS_02\DEBUG\2-1.LIB" /MACHINE:X86 DEBUG\MAIN.OBJ
^C:\USERS\REV\DOCUMENTS\DS_02\2-1\DEBUG\MAIN.OBJ
/OUT:"C:\USERS\REV\DOCUMENTS\DS_02\DEBUG\2-1.EXE" /INCREMENTAL /NOLOGO kernel32.lib user32.lib gdi32.lib winspool.lib comdlg32.lib advapi32.lib shell32.lib ole32.lib oleaut32.lib uuid.lib odbc32.lib odbccp32.lib /MANIFEST /MANIFESTUAC:"level='asInvoker' uiAccess='false'" /manifest:embed /DEBUG /PDB:"C:\USERS\REV\DOCUMENTS\DS_02\DEBUG\2-1.PDB" /SUBSYSTEM:CONSOLE /TLBID:1 /DYNAMICBASE /NXCOMPAT /IMPLIB:"C:\USERS\REV\DOCUMENTS\DS_02\DEBUG\2-1.LIB" /MACHINE:X86 DEBUG\MAIN.OBJ
